1,mira,bela,Mirabela Petrescu,mira@yahoo.com,ADMIN
15,gica,1234,Gica Popescu,gica@gmail.com,LIBRARIAN
16,popescu,1234,Popescu,popescu@yahoo.com,ADMIN
17,iliescu,1234,Iliescu,iliescu@yahoo.com,LIBRARIAN
18,georgescu,1234,Georgescu,georgescu@yahoo.com,LIBRARIAN
20,baciu,1234,Baciu Andrei,baciu@yahoo.com,LIBRARIAN
21,tarnoveanu,1234,Tarnoveanu,tarnoveanu@yahoo.com,ADMIN
22,popescuIonel,1234,Popescu,popescuIonel@yahoo.com,ADMIN
23,iliescuMaria,1234,Iliescu,iliescuMaria@yahoo.com,LIBRARIAN
24,petrescu_marius,1234,Marius Petrescu,petrescuMarius@yahoo.com,ADMIN
25,pintilieRaluca,1234,Pintilie Raluca,pintilieRaluca@yahoo.com,LIBRARIAN
26,claudiu_Campeanu,1234,Claudiu Campeanu,claudiuC@yahoo.com,ADMIN
28,georgescuVasile,1234,Georgescu Vasile,georgescuVasile@yahoo.com,ADMIN
29,petreanuViorica,1234,Petreanu Viorica,petreanuViorica@yahoo.com,LIBRARIAN
30,popescuMarin,1234,Popescu Marin,popescuMarin@yahoo.com,ADMIN
31,iliescuIlinca,1234,Iliescu Ilinca,iliescuIlinca@yahoo.com,LIBRARIAN
33,tarnoveanuIonela,1234,Tarnoveanu Ionela,tarnoveanuIonela@yahoo.com,ADMIN
34,mGica,1234,Mircea Gica Popa,mGica@yahoo.com,LIBRARIAN
36,georgescuMarin,1234,Georgescu Marin,georgescuMarin@yahoo.com,LIBRARIAN
37,claudiuCampeanu,1234,Claudiu Campeanu,claudiu@yahoo.com,ADMIN
38,codrinS,1234,Codrin Suciu,codrin_suciu@yahoo.com,ADMIN
39,marcel,1234,marcel popa,marcelPopa@yahoo.com,LIBRARIAN