revedere,Popescu Viorel,BOOK,DESTROYED
adio,Virgil Magureanu,MAGAZINE,AVAILABLE
soarele,Anonim,ARTICLE,AVAILABLE
Apus,Costeniuc George,DIGITAL_STORAGE_MEDIA,AVAILABLE
C# intro,Ipatiov Amalia,DIGITAL_STORAGE_MEDIA,AVAILABLE
Revedere,Popescu Viorel,BOOK,AVAILABLE
adio,Virgil Magureanu,MAGAZINE,AVAILABLE
soarele,Anonim,ARTICLE,LOST
Apus,Costeniuc George,DIGITAL_STORAGE_MEDIA,AVAILABLE
ganduri,Anonim,BOOK,AVAILABLE
popas,Munteanu Marcel,MAGAZINE,AVAILABLE
ce frumos!,Catalin,ARTICLE,LOST
casa de pe lac,Enterprise,DIGITAL_STORAGE_MEDIA,AVAILABLE