mira,bela,Mirabela Petrescu,mira@yahoo.com,ADMIN
popescu,1234,Popescu,popescu@yahoo.com,ADMIN
iliescu,1234,Iliescu,iliescu@yahoo.com,LIBRARIAN
georgescu,1234,Georgescu,georgescu@yahoo.com,LIBRARIAN
tarnoveanu,1234,Tarnoveanu,tarnoveanu@yahoo.com,ADMIN
popescuIonel,1234,Popescu,popescuIonel@yahoo.com,ADMIN
iliescuMaria,1234,Iliescu,iliescuMaria@yahoo.com,LIBRARIAN
petrescuMarius,1234,Marius Petrescu,petrescuMarius@yahoo.com,ADMIN
pintilieRaluca,1234,Pintilie Raluca,pintilieRaluca@yahoo.com,LIBRARIAN
claudiuCampeanu,1234,Claudiu Campeanu,claudiu@yahoo.com,ADMIN
georgescuMarin,1234,Georgescu Marin,georgescuMarin@yahoo.com,LIBRARIAN
georgescuVasile,1234,Georgescu Vasile,georgescuVasile@yahoo.com,ADMIN
petreanuViorica,1234,Petreanu Viorica,petreanuViorica@yahoo.com,LIBRARIAN
popescuMarin,1234,Popescu Marin,popescuMarin@yahoo.com,ADMIN
iliescuIlinca,1234,Iliescu Ilinca,iliescuIlinca@yahoo.com,LIBRARIAN
georgescuMarcica,1234,Georgescu Marcica,georgescuMarcia@yahoo.com,LIBRARIAN
tarnoveanuIonela,1234,Tarnoveanu Ionela,tarnoveanuIonela@yahoo.com,ADMIN
petreaDiana,1234,Diana Petrea,petrea_diana@yahoo.com,LIBRARIAN
petreaIonel,1234,Ionel Petrea,petrea_ionel@yahoo.com,LIBRARIAN